<svg width="48" height="48" viewBox="0 0 48 48" fill="none" xmlns="http://www.w3.org/2000/svg">
<path d="M48 21.15V16.2L36 9.9V9H47.4L45.15 4.5L47.25 0H33V8.4L25.65 4.5H22.2L0.75 15.9L0 16.35V21.3H48V21.15ZM36 3H42.6L41.85 4.65L42.6 6H36V3ZM22.95 7.5H24.9L45 18V18.15H3V18L22.95 7.5Z" fill="#2185FB"/>
<path d="M48 45H45V24H42V45H30V40.5C30 37.2 27.3 34.5 24 34.5C20.7 34.5 18 37.2 18 40.5V45H6V24H3V45H0V48H48V45ZM21 40.5C21 38.85 22.35 37.5 24 37.5C25.65 37.5 27 38.85 27 40.5V45H21V40.5Z" fill="#2185FB"/>
<path d="M9 36H12V39H9V36Z" fill="#2185FB"/>
<path d="M9 30H12V33H9V30Z" fill="#2185FB"/>
<path d="M36 36H39V39H36V36Z" fill="#2185FB"/>
<path d="M36 30H39V33H36V30Z" fill="#2185FB"/>
<path d="M27 30H30V33H27V30Z" fill="#2185FB"/>
<path d="M18 30H21V33H18V30Z" fill="#2185FB"/>
<path d="M9 24H12V27H9V24Z" fill="#2185FB"/>
<path d="M36 24H39V27H36V24Z" fill="#2185FB"/>
<path d="M27 24H30V27H27V24Z" fill="#2185FB"/>
<path d="M18 24H21V27H18V24Z" fill="#2185FB"/>
</svg>
