<svg width="22" height="32" viewBox="0 0 22 32" fill="none" xmlns="http://www.w3.org/2000/svg">
<path d="M10 27.0001C10.5304 27.0001 11.0391 26.7893 11.4142 26.4143C11.7893 26.0392 12 25.5305 12 25.0001V22.0001H18C18.5304 22.0001 19.0391 21.7893 19.4142 21.4143C19.7893 21.0392 20 20.5305 20 20.0001V8.00006H22V6.00006H16V6.10352e-05H14V6.00006H8V6.10352e-05H6V6.00006H0V8.00006H2V20.0001C2 20.5305 2.21071 21.0392 2.58579 21.4143C2.96086 21.7893 3.46957 22.0001 4 22.0001H10V25.0001H5C4.46957 25.0001 3.96086 25.2108 3.58579 25.5858C3.21071 25.9609 3 26.4696 3 27.0001V30.0001C3 30.5305 3.21071 31.0392 3.58579 31.4143C3.96086 31.7893 4.46957 32.0001 5 32.0001H21V30.0001H5V27.0001H10ZM4 20.0001V8.00006H18V20.0001H4Z" fill="#2185FB"/>
<path d="M7 11.0001H15V13.0001H7V11.0001Z" fill="#2185FB"/>
<path d="M7 15.0001H15V17.0001H7V15.0001Z" fill="#2185FB"/>
</svg>
