<svg width="96" height="27" viewBox="0 0 96 27" fill="none" xmlns="http://www.w3.org/2000/svg">
<path fill-rule="evenodd" clip-rule="evenodd" d="M0.21 18.808C0.84 19.488 2.698 21.145 5.786 21.145C7.316 21.145 8.575 20.76 9.564 19.991C10.584 19.193 11.094 18.187 11.094 16.975C11.094 12.036 2.608 12.805 2.608 9.463C2.608 8.043 3.868 7.275 5.996 7.275C7.196 7.275 8.605 7.837 8.605 8.813V9.523H10.493V8.25C10.493 6.949 9.114 6.061 7.795 5.795C7.17653 5.64379 6.54266 5.5646 5.906 5.559C2.758 5.56 0.54 6.98 0.54 9.582C0.48 12.391 3.628 13.515 5.996 14.372C7.676 14.993 8.994 15.851 8.994 17.034C8.994 18.542 7.615 19.4 5.816 19.4C4.939 19.398 4.07536 19.185 3.298 18.779C2.488 18.365 1.978 18.039 1.738 17.803L1.199 17.182L0 18.542L0.21 18.808ZM16.37 20.79V13.337H17.749C18.559 13.337 19.099 13.544 19.338 13.988L22.336 19.311C23.026 20.523 23.416 20.79 24.944 20.79H26.354V19.045H25.544C24.734 19.045 24.434 18.897 24.164 18.395L21.437 13.574C21.107 12.983 20.807 12.628 20.477 12.48V12.42L20.597 12.361C20.747 12.273 21.167 11.918 21.617 11.356L25.964 5.915H23.505L19.638 10.883C19.248 11.356 18.678 11.593 17.898 11.593H16.37V1.715C16.37 0.444 15.86 0 14.54 0H12.412V1.745H13.672C14.122 1.745 14.332 1.952 14.332 2.395V20.79H16.37ZM30.16 27C32.109 27 33.668 25.817 34.477 23.895L40.984 8.34C41.164 7.896 41.524 7.66 42.034 7.66H42.334V5.914H41.404C39.995 5.914 39.575 6.209 39.066 7.54L35.348 16.826C35.138 17.329 34.988 17.861 34.838 18.423H34.778L34.238 16.826L30.371 7.54C29.861 6.21 29.411 5.914 28.063 5.914H27.133V7.658H27.433C27.943 7.658 28.273 7.895 28.483 8.338L33.789 20.73L32.889 22.77C32.199 24.397 31.27 25.195 30.101 25.195C28.842 25.195 27.883 24.19 27.853 24.101L26.893 25.55L27.253 25.934C27.703 26.408 28.932 26.999 30.161 26.999L30.16 27ZM43.622 13.249C43.622 10.912 44.342 9.019 45.78 7.571C47.25 6.092 49.108 5.353 51.417 5.353C53.546 5.353 55.195 6.033 56.394 7.393C57.593 8.724 58.193 10.439 58.193 12.509C58.193 13.012 58.163 13.485 58.073 13.959H47.52C47.76 16.472 49.709 17.951 52.137 17.951C53.457 17.951 54.926 17.389 56.515 16.295L58.014 18.985C56.664 20.08 54.296 21.145 51.868 21.145C49.409 21.145 47.43 20.375 45.901 18.868C44.372 17.33 43.623 15.467 43.623 13.248L43.622 13.249ZM47.639 11.385H54.385C54.355 9.405 53.095 8.192 51.327 8.192C49.408 8.192 47.999 9.463 47.639 11.386V11.385ZM65.389 20.79V13.87C65.389 13.16 65.478 12.48 65.658 11.859C66.258 9.996 67.757 8.783 69.795 8.783C71.595 8.783 72.194 9.848 72.194 11.859V18.779C72.194 20.199 72.794 20.789 74.233 20.789H77.83V17.625H76.661C76.211 17.625 76.001 17.418 76.001 16.975V11.09C76.001 7.275 74.233 5.353 70.665 5.353C67.907 5.353 66.108 6.831 65.268 8.487H65.208L65.238 7.837V7.393C65.238 6.269 64.578 5.708 63.229 5.708H59.722V8.9H60.921C61.371 8.9 61.581 9.107 61.581 9.551V20.79H65.388H65.389ZM80.679 25.699L81.848 22.741C83.108 23.421 84.516 23.747 86.045 23.747C88.594 23.747 90.392 22.623 90.392 20.05V19.34L90.422 18.542H90.362C89.433 19.843 88.024 20.494 86.105 20.494C83.977 20.494 82.298 19.754 81.068 18.306C79.839 16.826 79.239 15.023 79.239 12.864C79.239 10.705 79.839 8.901 81.039 7.482C82.238 6.062 83.887 5.352 86.015 5.352C88.803 5.352 90.213 6.713 90.602 7.245L90.722 7.482H90.782C90.752 7.364 90.752 7.245 90.752 7.097C90.752 6.358 91.352 5.707 92.462 5.707H96V8.901H94.83C94.381 8.901 94.171 9.108 94.171 9.493V19.873C94.171 25.048 90.094 27 86.106 27C84.157 27 82.329 26.556 80.68 25.699H80.679ZM86.915 17.329C88.983 17.329 90.453 16.059 90.453 12.894C90.453 9.996 89.193 8.547 86.675 8.547C84.396 8.547 83.077 10.173 83.077 12.746C83.077 15.466 84.517 17.33 86.915 17.33V17.329Z" fill="#3075F3"/>
</svg>
